{ 
    "releases": [
        {
            "major": "2",
            "minors" : [
                {"number": "0", "date": "2006-02-17"}, 
                {"number": "0.1", "date": "2006-03-23"},
                {"number": "1.0", "date": "2007-06-05"}
            ]
        },
        {
            "major": "3",  
            "minors" : [
                {"number": "0.0", "date": "2008-02-19"}, 
                {"number": "0.1", "date": "2008-05-08"},
                {"number": "1.0", "date": "2009-04-14"},
                {"number": "1.1", "date": "2009-11-04"},
                {"number": "2.0", "date": "2009-11-24"}
            ]
        },
        {
            "major": "4",  
            "minors" : [
                {"number": "0.0", "date": "2011-06-19"}, 
                {"number": "0.1", "date": "2012-02-03"},
                {"number": "1.0", "date": "2013-06-12"}
            ],
            "name": "Octopus vulgaris (common octopus)"
        },
        {
            "major": "5",  
            "minors" : [
                {"number": "0", "date": "2015-10-07"}
            ],
            "libxc"  : {
                    "minimum" :     "2",
                    "recommended" : "2.2.2"
            },
            "name": "Octopus superciliosus (frilled pygmy octopus)"
        },
        {
            "major": "6",  
            "minors" : [
                {"number": "0", "date": "2016-09-05"}
                ],
            "libxc"  : {
                    "minimum" :     "2",
                    "recommended" : "3.0.0"
            },
            "name": "Octopus tetricus (common Sydney octopus or gloomy octopus)"
        },
        {
            "major": "7",  
            "minors" : [
                {"number": "0", "date": "2017-06-06"},
                {"number": "1", "date": "2017-06-09"}, 
                {"number": "2", "date": "2018-01-15"}, 
                {"number": "3", "date": "2018-03-24"}
            ],
            "libxc"  : {
                    "minimum" :     "2",
                    "recommended" : "3.0.0"
            },
            "name": "Octopus mimus (Gould octopus)"
        },
        {
            "major": "8",  
            "minors" : [
                {"number": "0", "date": "2018-06-15"}, 
                {"number": "1", "date": "2018-07-06"}, 
                {"number": "2", "date": "2018-08-08"}, 
                {"number": "3", "date": "2018-11-13"},
                {"number": "4", "date": "2019-02-08"}
            ],
            "libxc"  : {
                    "minimum" :     "2",
                    "recommended" : "4.1.0"
            },
            "name": "Octopus wolfi (star-sucker pygmy octopus)"
        },
        {
            "major": "9",  
            "minors" : [
                {"number": "0", "date": "2019-05-14"}, 
                {"number": "1", "date": "2019-06-28"}, 
                {"number": "2", "date": "2020-02-07"}
            ],
            "libxc"  : {
                    "minimum" :     "2",
                    "recommended" : "4.3.4"
            },
            "name": "Octopus australis (hammer octopus)"
        },
        {
            "major" : "10",
            "minors" : [
                {"number": "0", "date": "2020-07-20"},
                {"number": "1", "date": "2020-08-17"},
                {"number": "2", "date": "2020-10-28"},
                {"number": "3", "date": "2020-11-09"},
                {"number": "4", "date": "2021-02-04"},
                {"number": "5", "date": "2021-05-31"}
            ],
            "libxc"  : {
                "minimum" : "3",
                "recommended" : "4.3.4"
                },
            "name": "Octopus selene (moon octopus)"
         },
         {
            "major" : "11",
            "minors" : [
                {"number": "0", "date": "2021-08-20"},
                {"number": "1", "date": "2021-09-03"},
                {"number": "2", "date": "2021-10-18"},
                {"number": "3", "date": "2021-11-25"},
                {"number": "4", "date": "2022-01-27"}
            ],
            "libxc"  : {
                "minimum" : "4",
                "recommended" : "4.3.4"
                },
            "name": "Octopus arborescens"
         },
         {
            "major" : "12",
            "minors" : [
                {"number": "0", "date": "2022-09-19"},
                {"number": "1", "date": "2022-10-14"},
                {"number": "2", "date": "2023-02-14"}
            ],
            "libxc"  : {
                "minimum" : "4",
                "recommended" : "4.3.4"
                },
                "name": "Octopus maya"
            },
         {
            "major" : "13",
            "minors" : [
                {"number": "0", "date": "2023-06-28"}
            ],
            "libxc"  : {
                "minimum" : "5",
                "recommended" : "5.2.3"
                },
            "name": "Octopus bimaculatus"
            },
         {
            "major" : "14",
            "minors" : [
                {"number": "0", "date": "2024-03-12"}
            ],
            "libxc" : {
                "minimum": "5.1.0",
                "recommended": "6.2.2"
            },
            "name": "Octopus mercatoris"
         }
    ],
    "current": {
        "name": "tehuelchus"
    }
}